{
  "page": 1,
  "per_page": 15,
  "photos": [
    {
      "id": 19446461,
      "width": 4000,
      "height": 6000,
      "url": "https://www.pexels.com/photo/alley-between-buildings-19446461/",
      "photographer": "Benny Dennis",
      "photographer_url": "https://www.pexels.com/@benny-dennis-337910263",
      "photographer_id": 337910263,
      "avg_color": "#A3A1A4",
      "src": {
        "original": "https://images.pexels.com/photos/19446461/pexels-photo-19446461.jpeg",
        "large2x": "https://images.pexels.com/photos/19446461/pexels-photo-19446461.jpeg?auto=compress&cs=tinysrgb&dpr=2&h=650&w=940",
        "large": "https://images.pexels.com/photos/19446461/pexels-photo-19446461.jpeg?auto=compress&cs=tinysrgb&h=650&w=940",
        "medium": "https://images.pexels.com/photos/19446461/pexels-photo-19446461.jpeg?auto=compress&cs=tinysrgb&h=350",
        "small": "https://images.pexels.com/photos/19446461/pexels-photo-19446461.jpeg?auto=compress&cs=tinysrgb&h=130",
        "portrait": "https://images.pexels.com/photos/19446461/pexels-photo-19446461.jpeg?auto=compress&cs=tinysrgb&fit=crop&h=1200&w=800",
        "landscape": "https://images.pexels.com/photos/19446461/pexels-photo-19446461.jpeg?auto=compress&cs=tinysrgb&fit=crop&h=627&w=1200",
        "tiny": "https://images.pexels.com/photos/19446461/pexels-photo-19446461.jpeg?auto=compress&cs=tinysrgb&dpr=1&fit=crop&h=200&w=280"
      },
      "liked": false,
      "alt": ""
    },
    {
      "id": 19393311,
      "width": 2624,
      "height": 3936,
      "url": "https://www.pexels.com/photo/village-in-dagestan-in-russia-19393311/",
      "photographer": "Ruslan Ataev",
      "photographer_url": "https://www.pexels.com/@ruslan-ataev-830130344",
      "photographer_id": 830130344,
      "avg_color": "#7B7B71",
      "src": {
        "original": "https://images.pexels.com/photos/19393311/pexels-photo-19393311.jpeg",
        "large2x": "https://images.pexels.com/photos/19393311/pexels-photo-19393311.jpeg?auto=compress&cs=tinysrgb&dpr=2&h=650&w=940",
        "large": "https://images.pexels.com/photos/19393311/pexels-photo-19393311.jpeg?auto=compress&cs=tinysrgb&h=650&w=940",
        "medium": "https://images.pexels.com/photos/19393311/pexels-photo-19393311.jpeg?auto=compress&cs=tinysrgb&h=350",
        "small": "https://images.pexels.com/photos/19393311/pexels-photo-19393311.jpeg?auto=compress&cs=tinysrgb&h=130",
        "portrait": "https://images.pexels.com/photos/19393311/pexels-photo-19393311.jpeg?auto=compress&cs=tinysrgb&fit=crop&h=1200&w=800",
        "landscape": "https://images.pexels.com/photos/19393311/pexels-photo-19393311.jpeg?auto=compress&cs=tinysrgb&fit=crop&h=627&w=1200",
        "tiny": "https://images.pexels.com/photos/19393311/pexels-photo-19393311.jpeg?auto=compress&cs=tinysrgb&dpr=1&fit=crop&h=200&w=280"
      },
      "liked": false,
      "alt": "Mountain village "
    },
    {
      "id": 19390854,
      "width": 4000,
      "height": 3000,
      "url": "https://www.pexels.com/photo/boats-on-lagoon-19390854/",
      "photographer": "Pok Rie",
      "photographer_url": "https://www.pexels.com/@pok-rie-33563",
      "photographer_id": 33563,
      "avg_color": "#6F5E4E",
      "src": {
        "original": "https://images.pexels.com/photos/19390854/pexels-photo-19390854.jpeg",
        "large2x": "https://images.pexels.com/photos/19390854/pexels-photo-19390854.jpeg?auto=compress&cs=tinysrgb&dpr=2&h=650&w=940",
        "large": "https://images.pexels.com/photos/19390854/pexels-photo-19390854.jpeg?auto=compress&cs=tinysrgb&h=650&w=940",
        "medium": "https://images.pexels.com/photos/19390854/pexels-photo-19390854.jpeg?auto=compress&cs=tinysrgb&h=350",
        "small": "https://images.pexels.com/photos/19390854/pexels-photo-19390854.jpeg?auto=compress&cs=tinysrgb&h=130",
        "portrait": "https://images.pexels.com/photos/19390854/pexels-photo-19390854.jpeg?auto=compress&cs=tinysrgb&fit=crop&h=1200&w=800",
        "landscape": "https://images.pexels.com/photos/19390854/pexels-photo-19390854.jpeg?auto=compress&cs=tinysrgb&fit=crop&h=627&w=1200",
        "tiny": "https://images.pexels.com/photos/19390854/pexels-photo-19390854.jpeg?auto=compress&cs=tinysrgb&dpr=1&fit=crop&h=200&w=280"
      },
      "liked": false,
      "alt": ""
    },
    {
      "id": 19380620,
      "width": 4160,
      "height": 6240,
      "url": "https://www.pexels.com/photo/back-of-a-man-fishing-at-the-harbor-19380620/",
      "photographer": "birkaybolushikayesi",
      "photographer_url": "https://www.pexels.com/@birkaybolushikayesi-116751423",
      "photographer_id": 116751423,
      "avg_color": "#B7B6B4",
      "src": {
        "original": "https://images.pexels.com/photos/19380620/pexels-photo-19380620.jpeg",
        "large2x": "https://images.pexels.com/photos/19380620/pexels-photo-19380620.jpeg?auto=compress&cs=tinysrgb&dpr=2&h=650&w=940",
        "large": "https://images.pexels.com/photos/19380620/pexels-photo-19380620.jpeg?auto=compress&cs=tinysrgb&h=650&w=940",
        "medium": "https://images.pexels.com/photos/19380620/pexels-photo-19380620.jpeg?auto=compress&cs=tinysrgb&h=350",
        "small": "https://images.pexels.com/photos/19380620/pexels-photo-19380620.jpeg?auto=compress&cs=tinysrgb&h=130",
        "portrait": "https://images.pexels.com/photos/19380620/pexels-photo-19380620.jpeg?auto=compress&cs=tinysrgb&fit=crop&h=1200&w=800",
        "landscape": "https://images.pexels.com/photos/19380620/pexels-photo-19380620.jpeg?auto=compress&cs=tinysrgb&fit=crop&h=627&w=1200",
        "tiny": "https://images.pexels.com/photos/19380620/pexels-photo-19380620.jpeg?auto=compress&cs=tinysrgb&dpr=1&fit=crop&h=200&w=280"
      },
      "liked": false,
      "alt": "A man is fishing on the water"
    },
    {
      "id": 19354391,
      "width": 2584,
      "height": 4185,
      "url": "https://www.pexels.com/photo/back-and-white-photography-of-men-standing-outside-a-mosque-19354391/",
      "photographer": "RECALL FROM THE FUTURE",
      "photographer_url": "https://www.pexels.com/@recall-from-the-future-121966277",
      "photographer_id": 121966277,
      "avg_color": "#5C5B59",
      "src": {
        "original": "https://images.pexels.com/photos/19354391/pexels-photo-19354391.jpeg",
        "large2x": "https://images.pexels.com/photos/19354391/pexels-photo-19354391.jpeg?auto=compress&cs=tinysrgb&dpr=2&h=650&w=940",
        "large": "https://images.pexels.com/photos/19354391/pexels-photo-19354391.jpeg?auto=compress&cs=tinysrgb&h=650&w=940",
        "medium": "https://images.pexels.com/photos/19354391/pexels-photo-19354391.jpeg?auto=compress&cs=tinysrgb&h=350",
        "small": "https://images.pexels.com/photos/19354391/pexels-photo-19354391.jpeg?auto=compress&cs=tinysrgb&h=130",
        "portrait": "https://images.pexels.com/photos/19354391/pexels-photo-19354391.jpeg?auto=compress&cs=tinysrgb&fit=crop&h=1200&w=800",
        "landscape": "https://images.pexels.com/photos/19354391/pexels-photo-19354391.jpeg?auto=compress&cs=tinysrgb&fit=crop&h=627&w=1200",
        "tiny": "https://images.pexels.com/photos/19354391/pexels-photo-19354391.jpeg?auto=compress&cs=tinysrgb&dpr=1&fit=crop&h=200&w=280"
      },
      "liked": false,
      "alt": "Hope"
    },
    {
      "id": 19342513,
      "width": 4000,
      "height": 6000,
      "url": "https://www.pexels.com/photo/young-man-gesturing-against-the-sky-at-night-19342513/",
      "photographer": "Kamyar Dehghan",
      "photographer_url": "https://www.pexels.com/@kamyar-dehghan-211352708",
      "photographer_id": 211352708,
      "avg_color": "#303426",
      "src": {
        "original": "https://images.pexels.com/photos/19342513/pexels-photo-19342513.jpeg",
        "large2x": "https://images.pexels.com/photos/19342513/pexels-photo-19342513.jpeg?auto=compress&cs=tinysrgb&dpr=2&h=650&w=940",
        "large": "https://images.pexels.com/photos/19342513/pexels-photo-19342513.jpeg?auto=compress&cs=tinysrgb&h=650&w=940",
        "medium": "https://images.pexels.com/photos/19342513/pexels-photo-19342513.jpeg?auto=compress&cs=tinysrgb&h=350",
        "small": "https://images.pexels.com/photos/19342513/pexels-photo-19342513.jpeg?auto=compress&cs=tinysrgb&h=130",
        "portrait": "https://images.pexels.com/photos/19342513/pexels-photo-19342513.jpeg?auto=compress&cs=tinysrgb&fit=crop&h=1200&w=800",
        "landscape": "https://images.pexels.com/photos/19342513/pexels-photo-19342513.jpeg?auto=compress&cs=tinysrgb&fit=crop&h=627&w=1200",
        "tiny": "https://images.pexels.com/photos/19342513/pexels-photo-19342513.jpeg?auto=compress&cs=tinysrgb&dpr=1&fit=crop&h=200&w=280"
      },
      "liked": false,
      "alt": ""
    },
    {
      "id": 19342826,
      "width": 4207,
      "height": 6311,
      "url": "https://www.pexels.com/photo/lighthouse-on-hill-on-coast-19342826/",
      "photographer": "Tommaso Zanini",
      "photographer_url": "https://www.pexels.com/@tommaso-zanini-825347186",
      "photographer_id": 825347186,
      "avg_color": "#889696",
      "src": {
        "original": "https://images.pexels.com/photos/19342826/pexels-photo-19342826.jpeg",
        "large2x": "https://images.pexels.com/photos/19342826/pexels-photo-19342826.jpeg?auto=compress&cs=tinysrgb&dpr=2&h=650&w=940",
        "large": "https://images.pexels.com/photos/19342826/pexels-photo-19342826.jpeg?auto=compress&cs=tinysrgb&h=650&w=940",
        "medium": "https://images.pexels.com/photos/19342826/pexels-photo-19342826.jpeg?auto=compress&cs=tinysrgb&h=350",
        "small": "https://images.pexels.com/photos/19342826/pexels-photo-19342826.jpeg?auto=compress&cs=tinysrgb&h=130",
        "portrait": "https://images.pexels.com/photos/19342826/pexels-photo-19342826.jpeg?auto=compress&cs=tinysrgb&fit=crop&h=1200&w=800",
        "landscape": "https://images.pexels.com/photos/19342826/pexels-photo-19342826.jpeg?auto=compress&cs=tinysrgb&fit=crop&h=627&w=1200",
        "tiny": "https://images.pexels.com/photos/19342826/pexels-photo-19342826.jpeg?auto=compress&cs=tinysrgb&dpr=1&fit=crop&h=200&w=280"
      },
      "liked": false,
      "alt": "Iceland Faro"
    },
    {
      "id": 19342827,
      "width": 4294,
      "height": 6441,
      "url": "https://www.pexels.com/photo/ice-on-sea-water-19342827/",
      "photographer": "Tommaso Zanini",
      "photographer_url": "https://www.pexels.com/@tommaso-zanini-825347186",
      "photographer_id": 825347186,
      "avg_color": "#7E9398",
      "src": {
        "original": "https://images.pexels.com/photos/19342827/pexels-photo-19342827.jpeg",
        "large2x": "https://images.pexels.com/photos/19342827/pexels-photo-19342827.jpeg?auto=compress&cs=tinysrgb&dpr=2&h=650&w=940",
        "large": "https://images.pexels.com/photos/19342827/pexels-photo-19342827.jpeg?auto=compress&cs=tinysrgb&h=650&w=940",
        "medium": "https://images.pexels.com/photos/19342827/pexels-photo-19342827.jpeg?auto=compress&cs=tinysrgb&h=350",
        "small": "https://images.pexels.com/photos/19342827/pexels-photo-19342827.jpeg?auto=compress&cs=tinysrgb&h=130",
        "portrait": "https://images.pexels.com/photos/19342827/pexels-photo-19342827.jpeg?auto=compress&cs=tinysrgb&fit=crop&h=1200&w=800",
        "landscape": "https://images.pexels.com/photos/19342827/pexels-photo-19342827.jpeg?auto=compress&cs=tinysrgb&fit=crop&h=627&w=1200",
        "tiny": "https://images.pexels.com/photos/19342827/pexels-photo-19342827.jpeg?auto=compress&cs=tinysrgb&dpr=1&fit=crop&h=200&w=280"
      },
      "liked": false,
      "alt": ""
    },
    {
      "id": 19342832,
      "width": 4257,
      "height": 6386,
      "url": "https://www.pexels.com/photo/man-standing-on-broken-airplane-19342832/",
      "photographer": "Tommaso Zanini",
      "photographer_url": "https://www.pexels.com/@tommaso-zanini-825347186",
      "photographer_id": 825347186,
      "avg_color": "#76898D",
      "src": {
        "original": "https://images.pexels.com/photos/19342832/pexels-photo-19342832.jpeg",
        "large2x": "https://images.pexels.com/photos/19342832/pexels-photo-19342832.jpeg?auto=compress&cs=tinysrgb&dpr=2&h=650&w=940",
        "large": "https://images.pexels.com/photos/19342832/pexels-photo-19342832.jpeg?auto=compress&cs=tinysrgb&h=650&w=940",
        "medium": "https://images.pexels.com/photos/19342832/pexels-photo-19342832.jpeg?auto=compress&cs=tinysrgb&h=350",
        "small": "https://images.pexels.com/photos/19342832/pexels-photo-19342832.jpeg?auto=compress&cs=tinysrgb&h=130",
        "portrait": "https://images.pexels.com/photos/19342832/pexels-photo-19342832.jpeg?auto=compress&cs=tinysrgb&fit=crop&h=1200&w=800",
        "landscape": "https://images.pexels.com/photos/19342832/pexels-photo-19342832.jpeg?auto=compress&cs=tinysrgb&fit=crop&h=627&w=1200",
        "tiny": "https://images.pexels.com/photos/19342832/pexels-photo-19342832.jpeg?auto=compress&cs=tinysrgb&dpr=1&fit=crop&h=200&w=280"
      },
      "liked": false,
      "alt": "Free stock photo of aerial, iceland"
    },
    {
      "id": 19328627,
      "width": 4000,
      "height": 6000,
      "url": "https://www.pexels.com/photo/view-of-two-vessels-on-the-sea-19328627/",
      "photographer": "Paul Bill",
      "photographer_url": "https://www.pexels.com/@hoffman11",
      "photographer_id": 103394523,
      "avg_color": "#A1B3BD",
      "src": {
        "original": "https://images.pexels.com/photos/19328627/pexels-photo-19328627.jpeg",
        "large2x": "https://images.pexels.com/photos/19328627/pexels-photo-19328627.jpeg?auto=compress&cs=tinysrgb&dpr=2&h=650&w=940",
        "large": "https://images.pexels.com/photos/19328627/pexels-photo-19328627.jpeg?auto=compress&cs=tinysrgb&h=650&w=940",
        "medium": "https://images.pexels.com/photos/19328627/pexels-photo-19328627.jpeg?auto=compress&cs=tinysrgb&h=350",
        "small": "https://images.pexels.com/photos/19328627/pexels-photo-19328627.jpeg?auto=compress&cs=tinysrgb&h=130",
        "portrait": "https://images.pexels.com/photos/19328627/pexels-photo-19328627.jpeg?auto=compress&cs=tinysrgb&fit=crop&h=1200&w=800",
        "landscape": "https://images.pexels.com/photos/19328627/pexels-photo-19328627.jpeg?auto=compress&cs=tinysrgb&fit=crop&h=627&w=1200",
        "tiny": "https://images.pexels.com/photos/19328627/pexels-photo-19328627.jpeg?auto=compress&cs=tinysrgb&dpr=1&fit=crop&h=200&w=280"
      },
      "liked": false,
      "alt": "Halong bay"
    },
    {
      "id": 19328666,
      "width": 4000,
      "height": 6000,
      "url": "https://www.pexels.com/photo/a-pathway-and-wooden-house-on-stilts-in-the-forest-19328666/",
      "photographer": "Paul Bill",
      "photographer_url": "https://www.pexels.com/@hoffman11",
      "photographer_id": 103394523,
      "avg_color": "#50483B",
      "src": {
        "original": "https://images.pexels.com/photos/19328666/pexels-photo-19328666.jpeg",
        "large2x": "https://images.pexels.com/photos/19328666/pexels-photo-19328666.jpeg?auto=compress&cs=tinysrgb&dpr=2&h=650&w=940",
        "large": "https://images.pexels.com/photos/19328666/pexels-photo-19328666.jpeg?auto=compress&cs=tinysrgb&h=650&w=940",
        "medium": "https://images.pexels.com/photos/19328666/pexels-photo-19328666.jpeg?auto=compress&cs=tinysrgb&h=350",
        "small": "https://images.pexels.com/photos/19328666/pexels-photo-19328666.jpeg?auto=compress&cs=tinysrgb&h=130",
        "portrait": "https://images.pexels.com/photos/19328666/pexels-photo-19328666.jpeg?auto=compress&cs=tinysrgb&fit=crop&h=1200&w=800",
        "landscape": "https://images.pexels.com/photos/19328666/pexels-photo-19328666.jpeg?auto=compress&cs=tinysrgb&fit=crop&h=627&w=1200",
        "tiny": "https://images.pexels.com/photos/19328666/pexels-photo-19328666.jpeg?auto=compress&cs=tinysrgb&dpr=1&fit=crop&h=200&w=280"
      },
      "liked": false,
      "alt": "A small cabin in the woods with a path leading to it"
    },
    {
      "id": 19323914,
      "width": 2291,
      "height": 3437,
      "url": "https://www.pexels.com/photo/aerial-view-of-the-hohenschwangau-castle-schwangau-germany-19323914/",
      "photographer": "Masood Aslami",
      "photographer_url": "https://www.pexels.com/@masoodaslami",
      "photographer_id": 1102042,
      "avg_color": "#53564F",
      "src": {
        "original": "https://images.pexels.com/photos/19323914/pexels-photo-19323914.jpeg",
        "large2x": "https://images.pexels.com/photos/19323914/pexels-photo-19323914.jpeg?auto=compress&cs=tinysrgb&dpr=2&h=650&w=940",
        "large": "https://images.pexels.com/photos/19323914/pexels-photo-19323914.jpeg?auto=compress&cs=tinysrgb&h=650&w=940",
        "medium": "https://images.pexels.com/photos/19323914/pexels-photo-19323914.jpeg?auto=compress&cs=tinysrgb&h=350",
        "small": "https://images.pexels.com/photos/19323914/pexels-photo-19323914.jpeg?auto=compress&cs=tinysrgb&h=130",
        "portrait": "https://images.pexels.com/photos/19323914/pexels-photo-19323914.jpeg?auto=compress&cs=tinysrgb&fit=crop&h=1200&w=800",
        "landscape": "https://images.pexels.com/photos/19323914/pexels-photo-19323914.jpeg?auto=compress&cs=tinysrgb&fit=crop&h=627&w=1200",
        "tiny": "https://images.pexels.com/photos/19323914/pexels-photo-19323914.jpeg?auto=compress&cs=tinysrgb&dpr=1&fit=crop&h=200&w=280"
      },
      "liked": false,
      "alt": "Bayren Deutschland"
    },
    {
      "id": 19321388,
      "width": 3871,
      "height": 5807,
      "url": "https://www.pexels.com/photo/neoclassicist-pantheon-mausoleum-in-paris-19321388/",
      "photographer": "Pascal Bronsert",
      "photographer_url": "https://www.pexels.com/@pascal-bronsert-736223622",
      "photographer_id": 736223622,
      "avg_color": "#59554A",
      "src": {
        "original": "https://images.pexels.com/photos/19321388/pexels-photo-19321388.jpeg",
        "large2x": "https://images.pexels.com/photos/19321388/pexels-photo-19321388.jpeg?auto=compress&cs=tinysrgb&dpr=2&h=650&w=940",
        "large": "https://images.pexels.com/photos/19321388/pexels-photo-19321388.jpeg?auto=compress&cs=tinysrgb&h=650&w=940",
        "medium": "https://images.pexels.com/photos/19321388/pexels-photo-19321388.jpeg?auto=compress&cs=tinysrgb&h=350",
        "small": "https://images.pexels.com/photos/19321388/pexels-photo-19321388.jpeg?auto=compress&cs=tinysrgb&h=130",
        "portrait": "https://images.pexels.com/photos/19321388/pexels-photo-19321388.jpeg?auto=compress&cs=tinysrgb&fit=crop&h=1200&w=800",
        "landscape": "https://images.pexels.com/photos/19321388/pexels-photo-19321388.jpeg?auto=compress&cs=tinysrgb&fit=crop&h=627&w=1200",
        "tiny": "https://images.pexels.com/photos/19321388/pexels-photo-19321388.jpeg?auto=compress&cs=tinysrgb&dpr=1&fit=crop&h=200&w=280"
      },
      "liked": false,
      "alt": ""
    },
    {
      "id": 19321435,
      "width": 4000,
      "height": 6000,
      "url": "https://www.pexels.com/photo/christmas-decor-in-living-room-19321435/",
      "photographer": "Nati",
      "photographer_url": "https://www.pexels.com/@nati-87264186",
      "photographer_id": 87264186,
      "avg_color": "#444138",
      "src": {
        "original": "https://images.pexels.com/photos/19321435/pexels-photo-19321435.jpeg",
        "large2x": "https://images.pexels.com/photos/19321435/pexels-photo-19321435.jpeg?auto=compress&cs=tinysrgb&dpr=2&h=650&w=940",
        "large": "https://images.pexels.com/photos/19321435/pexels-photo-19321435.jpeg?auto=compress&cs=tinysrgb&h=650&w=940",
        "medium": "https://images.pexels.com/photos/19321435/pexels-photo-19321435.jpeg?auto=compress&cs=tinysrgb&h=350",
        "small": "https://images.pexels.com/photos/19321435/pexels-photo-19321435.jpeg?auto=compress&cs=tinysrgb&h=130",
        "portrait": "https://images.pexels.com/photos/19321435/pexels-photo-19321435.jpeg?auto=compress&cs=tinysrgb&fit=crop&h=1200&w=800",
        "landscape": "https://images.pexels.com/photos/19321435/pexels-photo-19321435.jpeg?auto=compress&cs=tinysrgb&fit=crop&h=627&w=1200",
        "tiny": "https://images.pexels.com/photos/19321435/pexels-photo-19321435.jpeg?auto=compress&cs=tinysrgb&dpr=1&fit=crop&h=200&w=280"
      },
      "liked": false,
      "alt": "A christmas tree with a candle and a book"
    },
    {
      "id": 19318406,
      "width": 5225,
      "height": 3483,
      "url": "https://www.pexels.com/photo/heydar-aliyev-center-in-baku-19318406/",
      "photographer": "Javid Hashimov",
      "photographer_url": "https://www.pexels.com/@javid-hashimov-440739624",
      "photographer_id": 440739624,
      "avg_color": "#A9A9A9",
      "src": {
        "original": "https://images.pexels.com/photos/19318406/pexels-photo-19318406.jpeg",
        "large2x": "https://images.pexels.com/photos/19318406/pexels-photo-19318406.jpeg?auto=compress&cs=tinysrgb&dpr=2&h=650&w=940",
        "large": "https://images.pexels.com/photos/19318406/pexels-photo-19318406.jpeg?auto=compress&cs=tinysrgb&h=650&w=940",
        "medium": "https://images.pexels.com/photos/19318406/pexels-photo-19318406.jpeg?auto=compress&cs=tinysrgb&h=350",
        "small": "https://images.pexels.com/photos/19318406/pexels-photo-19318406.jpeg?auto=compress&cs=tinysrgb&h=130",
        "portrait": "https://images.pexels.com/photos/19318406/pexels-photo-19318406.jpeg?auto=compress&cs=tinysrgb&fit=crop&h=1200&w=800",
        "landscape": "https://images.pexels.com/photos/19318406/pexels-photo-19318406.jpeg?auto=compress&cs=tinysrgb&fit=crop&h=627&w=1200",
        "tiny": "https://images.pexels.com/photos/19318406/pexels-photo-19318406.jpeg?auto=compress&cs=tinysrgb&dpr=1&fit=crop&h=200&w=280"
      },
      "liked": false,
      "alt": ""
    }
  ],
  "total_results": 8000,
  "next_page": "https://api.pexels.com/v1/curated/?page=2&per_page=15"
}
